{
	"info": {
		"_postman_id": "42c54e32-25a4-475e-82d2-57b77af97ebc",
		"name": "Soccor",
		"schema": "https://schema.getpostman.com/json/collection/v2.1.0/collection.json"
	},
	"item": [
		{
			"name": "Area",
			"item": [
				{
					"name": "postArea",
					"request": {
						"method": "POST",
						"header": [
							{
								"key": "Content-Type",
								"value": "application/json",
								"type": "text"
							}
						],
						"body": {
							"mode": "formdata",
							"formdata": [
								{
									"key": "image",
									"type": "file",
									"src": ""
								},
								{
									"key": "name",
									"value": "vodafone park",
									"type": "text"
								},
								{
									"key": "city",
									"value": "istanbul",
									"type": "text"
								},
								{
									"key": "adress",
									"value": "beşiktaş",
									"type": "text"
								},
								{
									"key": "phone",
									"value": "36364736434",
									"type": "text"
								},
								{
									"key": "email",
									"value": "cihanavci@hotmail.com",
									"type": "text"
								},
								{
									"key": "capacity",
									"value": "12",
									"type": "text"
								}
							]
						},
						"url": {
							"raw": "{{apiUrl}}/v1/areas",
							"host": [
								"{{apiUrl}}"
							],
							"path": [
								"v1",
								"areas"
							],
							"query": [
								{
									"key": "",
									"value": ""
								}
							]
						}
					},
					"response": []
				},
				{
					"name": "getAreas",
					"protocolProfileBehavior": {
						"disableBodyPruning": true
					},
					"request": {
						"method": "GET",
						"header": [
							{
								"key": "Content-Type",
								"type": "text",
								"value": "application/json"
							}
						],
						"body": {
							"mode": "raw",
							"raw": "{\t\n\t\"name\": \"iaflasf\"\n}"
						},
						"url": {
							"raw": "{{apiUrl}}/v1/areas",
							"host": [
								"{{apiUrl}}"
							],
							"path": [
								"v1",
								"areas"
							]
						}
					},
					"response": []
				},
				{
					"name": "getArea",
					"protocolProfileBehavior": {
						"disableBodyPruning": true
					},
					"request": {
						"method": "GET",
						"header": [
							{
								"key": "Content-Type",
								"type": "text",
								"value": "application/json"
							}
						],
						"body": {
							"mode": "raw",
							"raw": "{\t\n\t\"name\": \"iaflasf\"\n}"
						},
						"url": {
							"raw": "{{apiUrl}}/v1/areas",
							"host": [
								"{{apiUrl}}"
							],
							"path": [
								"v1",
								"areas"
							]
						}
					},
					"response": []
				},
				{
					"name": "patchArea",
					"request": {
						"method": "PATCH",
						"header": [
							{
								"key": "Content-Type",
								"type": "text",
								"value": "application/json"
							}
						],
						"body": {
							"mode": "formdata",
							"formdata": [
								{
									"key": "image",
									"type": "file",
									"src": ""
								}
							]
						},
						"url": {
							"raw": "{{apiUrl}}/v1/areas/9766da74-3240-4149-a660-63059ded9eb1",
							"host": [
								"{{apiUrl}}"
							],
							"path": [
								"v1",
								"areas",
								"9766da74-3240-4149-a660-63059ded9eb1"
							]
						}
					},
					"response": []
				},
				{
					"name": "deleteArea",
					"request": {
						"method": "DELETE",
						"header": [
							{
								"key": "Content-Type",
								"type": "text",
								"value": "application/json"
							}
						],
						"body": {
							"mode": "raw",
							"raw": "{\t\n\t\"name\": \"iaflasf\"\n}"
						},
						"url": {
							"raw": "{{apiUrl}}/v1/areas/9766da74-3240-4149-a660-63059ded9eb1",
							"host": [
								"{{apiUrl}}"
							],
							"path": [
								"v1",
								"areas",
								"9766da74-3240-4149-a660-63059ded9eb1"
							]
						}
					},
					"response": []
				}
			]
		},
		{
			"name": "Country",
			"item": [
				{
					"name": "postCountry",
					"request": {
						"method": "POST",
						"header": [
							{
								"key": "Content-Type",
								"type": "text",
								"value": "application/json"
							}
						],
						"body": {
							"mode": "formdata",
							"formdata": [
								{
									"key": "image",
									"type": "file",
									"src": ""
								},
								{
									"key": "name",
									"value": "Almanya",
									"type": "text"
								}
							]
						},
						"url": {
							"raw": "{{apiUrl}}/v1/countrys",
							"host": [
								"{{apiUrl}}"
							],
							"path": [
								"v1",
								"countrys"
							]
						}
					},
					"response": []
				},
				{
					"name": "getCountrys",
					"protocolProfileBehavior": {
						"disableBodyPruning": true
					},
					"request": {
						"method": "GET",
						"header": [
							{
								"key": "Content-Type",
								"type": "text",
								"value": "application/json"
							}
						],
						"body": {},
						"url": {
							"raw": "{{apiUrl}}/v1/countrys",
							"host": [
								"{{apiUrl}}"
							],
							"path": [
								"v1",
								"countrys"
							]
						}
					},
					"response": []
				},
				{
					"name": "getCountry",
					"protocolProfileBehavior": {
						"disableBodyPruning": true
					},
					"request": {
						"method": "GET",
						"header": [
							{
								"key": "Content-Type",
								"type": "text",
								"value": "application/json"
							}
						],
						"body": {
							"mode": "raw",
							"raw": "{\t\n\t\"name\": \"iaflasf\"\n}"
						},
						"url": {
							"raw": "{{apiUrl}}/v1/countrys",
							"host": [
								"{{apiUrl}}"
							],
							"path": [
								"v1",
								"countrys"
							]
						}
					},
					"response": []
				},
				{
					"name": "patchCountry",
					"request": {
						"method": "PATCH",
						"header": [
							{
								"key": "Content-Type",
								"type": "text",
								"value": "application/json"
							}
						],
						"body": {
							"mode": "raw",
							"raw": "{\t\n\t\"name\": \"admşcmşa\"\n}"
						},
						"url": {
							"raw": "{{apiUrl}}/v1/countrys",
							"host": [
								"{{apiUrl}}"
							],
							"path": [
								"v1",
								"countrys"
							]
						}
					},
					"response": []
				},
				{
					"name": "deleteCountry",
					"request": {
						"method": "DELETE",
						"header": [
							{
								"key": "Content-Type",
								"type": "text",
								"value": "application/json"
							}
						],
						"body": {
							"mode": "raw",
							"raw": "{\t\n\t\"name\": \"iaflasf\"\n}"
						},
						"url": {
							"raw": "{{apiUrl}}/v1/countrys",
							"host": [
								"{{apiUrl}}"
							],
							"path": [
								"v1",
								"countrys"
							]
						}
					},
					"response": []
				}
			]
		},
		{
			"name": "Team",
			"item": [
				{
					"name": "postTeam",
					"request": {
						"method": "POST",
						"header": [
							{
								"key": "Content-Type",
								"type": "text",
								"value": "application/json"
							}
						],
						"body": {
							"mode": "formdata",
							"formdata": [
								{
									"key": "image",
									"type": "file",
									"src": ""
								},
								{
									"key": "name",
									"value": "Beşiktaş",
									"type": "text"
								},
								{
									"key": "countryPk",
									"value": "19ad7d5e-1b7c-4c3e-a886-604c63c89e08",
									"type": "text"
								},
								{
									"key": "color1",
									"value": "Siyah",
									"type": "text"
								},
								{
									"key": "color2",
									"value": "Beyaz",
									"type": "text"
								},
								{
									"key": "dateOfFoundation",
									"value": "2017-03-31 9:30:21",
									"type": "text"
								},
								{
									"key": "city",
									"value": "istanbul",
									"type": "text"
								},
								{
									"key": "email",
									"value": "cihanavcii@hotmail.com",
									"type": "text"
								},
								{
									"key": "phone",
									"value": "23525425",
									"type": "text"
								},
								{
									"key": "match",
									"value": "34",
									"type": "text"
								},
								{
									"key": "win",
									"value": "30",
									"type": "text"
								},
								{
									"key": "lose",
									"value": "23",
									"type": "text"
								},
								{
									"key": "goalsScored",
									"value": "23",
									"type": "text"
								},
								{
									"key": "concededGoal",
									"value": "35",
									"type": "text"
								},
								{
									"key": "point",
									"value": "23",
									"type": "text"
								},
								{
									"key": "likes",
									"value": "12",
									"type": "text"
								}
							]
						},
						"url": {
							"raw": "{{apiUrl}}/v1/teams",
							"host": [
								"{{apiUrl}}"
							],
							"path": [
								"v1",
								"teams"
							]
						}
					},
					"response": []
				},
				{
					"name": "getTeams",
					"protocolProfileBehavior": {
						"disableBodyPruning": true
					},
					"request": {
						"method": "GET",
						"header": [
							{
								"key": "Content-Type",
								"type": "text",
								"value": "application/json"
							}
						],
						"body": {},
						"url": {
							"raw": "{{apiUrl}}/v1/teams",
							"host": [
								"{{apiUrl}}"
							],
							"path": [
								"v1",
								"teams"
							]
						}
					},
					"response": []
				},
				{
					"name": "getTeam",
					"protocolProfileBehavior": {
						"disableBodyPruning": true
					},
					"request": {
						"method": "GET",
						"header": [
							{
								"key": "Content-Type",
								"type": "text",
								"value": "application/json"
							}
						],
						"body": {
							"mode": "raw",
							"raw": "{\t\n\t\"name\": \"iaflasf\"\n}"
						},
						"url": {
							"raw": "{{apiUrl}}/v1/teams",
							"host": [
								"{{apiUrl}}"
							],
							"path": [
								"v1",
								"teams"
							]
						}
					},
					"response": []
				},
				{
					"name": "patchTeam",
					"request": {
						"method": "PATCH",
						"header": [
							{
								"key": "Content-Type",
								"type": "text",
								"value": "application/json"
							}
						],
						"body": {
							"mode": "raw",
							"raw": "{\t\n\t\"name\": \"admşcmşa\"\n}"
						},
						"url": {
							"raw": "{{apiUrl}}/v1/teams",
							"host": [
								"{{apiUrl}}"
							],
							"path": [
								"v1",
								"teams"
							]
						}
					},
					"response": []
				},
				{
					"name": "deleteTeam",
					"request": {
						"method": "DELETE",
						"header": [
							{
								"key": "Content-Type",
								"type": "text",
								"value": "application/json"
							}
						],
						"body": {
							"mode": "raw",
							"raw": "{\t\n\t\"name\": \"iaflasf\"\n}"
						},
						"url": {
							"raw": "{{apiUrl}}/v1/teams",
							"host": [
								"{{apiUrl}}"
							],
							"path": [
								"v1",
								"teams"
							]
						}
					},
					"response": []
				}
			]
		},
		{
			"name": "Player",
			"item": [
				{
					"name": "postPlayer",
					"request": {
						"method": "POST",
						"header": [
							{
								"key": "Content-Type",
								"value": "application/json",
								"type": "text"
							}
						],
						"body": {
							"mode": "formdata",
							"formdata": [
								{
									"key": "image",
									"type": "file",
									"src": ""
								},
								{
									"key": "name",
									"value": "Cihan",
									"type": "text"
								},
								{
									"key": "surname",
									"value": "Avcı",
									"type": "text"
								},
								{
									"key": "positionPk",
									"value": "5fe05b24-efc8-45a1-a3b3-0a32bbbfe2b2",
									"type": "text"
								},
								{
									"key": "countryPk",
									"value": "f593a7fa-b47a-4b00-9f0f-19e621e4984b",
									"type": "text"
								},
								{
									"key": "teamPk",
									"value": "e09b6653-92d1-45fb-a42a-2bb11a6cac40",
									"type": "text"
								},
								{
									"key": "age",
									"value": "26",
									"type": "text"
								},
								{
									"key": "height",
									"value": "177",
									"type": "text"
								},
								{
									"key": "weight",
									"value": "81",
									"type": "text"
								},
								{
									"key": "phone",
									"value": "12312413414",
									"type": "text"
								},
								{
									"key": "email",
									"value": "cihanavcii@hotmail.com",
									"type": "text"
								}
							]
						},
						"url": {
							"raw": "{{apiUrl}}/v1/players",
							"host": [
								"{{apiUrl}}"
							],
							"path": [
								"v1",
								"players"
							]
						}
					},
					"response": []
				},
				{
					"name": "getPlayers",
					"protocolProfileBehavior": {
						"disableBodyPruning": true
					},
					"request": {
						"method": "GET",
						"header": [
							{
								"key": "Content-Type",
								"type": "text",
								"value": "application/json"
							}
						],
						"body": {
							"mode": "raw",
							"raw": "{\t\n\t\"name\": \"iaflasf\"\n}"
						},
						"url": {
							"raw": "{{apiUrl}}/v1/players",
							"host": [
								"{{apiUrl}}"
							],
							"path": [
								"v1",
								"players"
							]
						}
					},
					"response": []
				},
				{
					"name": "getPlayer",
					"protocolProfileBehavior": {
						"disableBodyPruning": true
					},
					"request": {
						"method": "GET",
						"header": [
							{
								"key": "Content-Type",
								"type": "text",
								"value": "application/json"
							}
						],
						"body": {
							"mode": "raw",
							"raw": "{\t\n\t\"name\": \"iaflasf\"\n}"
						},
						"url": {
							"raw": "{{apiUrl}}/v1/players",
							"host": [
								"{{apiUrl}}"
							],
							"path": [
								"v1",
								"players"
							]
						}
					},
					"response": []
				},
				{
					"name": "patchPlayer",
					"request": {
						"method": "PATCH",
						"header": [
							{
								"key": "Content-Type",
								"type": "text",
								"value": "application/json"
							}
						],
						"body": {
							"mode": "raw",
							"raw": "{\t\n\t\"name\": \"iafladfasdasf\"\n}"
						},
						"url": {
							"raw": "{{apiUrl}}/v1/players/029d5c39-7fa2-4a39-a0fc-06f15ea1f697",
							"host": [
								"{{apiUrl}}"
							],
							"path": [
								"v1",
								"players",
								"029d5c39-7fa2-4a39-a0fc-06f15ea1f697"
							]
						}
					},
					"response": []
				},
				{
					"name": "deletePlayer",
					"request": {
						"method": "DELETE",
						"header": [
							{
								"key": "Content-Type",
								"type": "text",
								"value": "application/json"
							}
						],
						"body": {
							"mode": "raw",
							"raw": "{\t\n\t\"name\": \"iaflasf\"\n}"
						},
						"url": {
							"raw": "{{apiUrl}}/v1/players/fb3508f0-17dd-4190-aaea-c5a690dd6d2f",
							"host": [
								"{{apiUrl}}"
							],
							"path": [
								"v1",
								"players",
								"fb3508f0-17dd-4190-aaea-c5a690dd6d2f"
							]
						}
					},
					"response": []
				}
			]
		},
		{
			"name": "Position",
			"item": [
				{
					"name": "postPosition",
					"request": {
						"method": "POST",
						"header": [
							{
								"key": "Content-Type",
								"value": "application/json",
								"type": "text"
							}
						],
						"body": {
							"mode": "raw",
							"raw": "{\t\n\t\"position\": \"KL\"\n}"
						},
						"url": {
							"raw": "{{apiUrl}}/v1/positions",
							"host": [
								"{{apiUrl}}"
							],
							"path": [
								"v1",
								"positions"
							]
						}
					},
					"response": []
				},
				{
					"name": "getPositions",
					"protocolProfileBehavior": {
						"disableBodyPruning": true
					},
					"request": {
						"method": "GET",
						"header": [
							{
								"key": "Content-Type",
								"type": "text",
								"value": "application/json"
							}
						],
						"body": {
							"mode": "raw",
							"raw": "{\t\n\t\"name\": \"iaflasf\"\n}"
						},
						"url": {
							"raw": "{{apiUrl}}/v1/positions",
							"host": [
								"{{apiUrl}}"
							],
							"path": [
								"v1",
								"positions"
							]
						}
					},
					"response": []
				},
				{
					"name": "getPosition",
					"protocolProfileBehavior": {
						"disableBodyPruning": true
					},
					"request": {
						"method": "GET",
						"header": [
							{
								"key": "Content-Type",
								"type": "text",
								"value": "application/json"
							}
						],
						"body": {
							"mode": "raw",
							"raw": "{\t\n\t\"name\": \"iaflasf\"\n}"
						},
						"url": {
							"raw": "{{apiUrl}}/v1/positions",
							"host": [
								"{{apiUrl}}"
							],
							"path": [
								"v1",
								"positions"
							]
						}
					},
					"response": []
				},
				{
					"name": "patchPosition",
					"request": {
						"method": "PATCH",
						"header": [
							{
								"key": "Content-Type",
								"type": "text",
								"value": "application/json"
							}
						],
						"body": {
							"mode": "raw",
							"raw": "{\t\n\t\"name\": \"iaflasf\"\n}"
						},
						"url": {
							"raw": "{{apiUrl}}/v1/positions",
							"host": [
								"{{apiUrl}}"
							],
							"path": [
								"v1",
								"positions"
							]
						}
					},
					"response": []
				},
				{
					"name": "deletePosition",
					"request": {
						"method": "DELETE",
						"header": [
							{
								"key": "Content-Type",
								"type": "text",
								"value": "application/json"
							}
						],
						"body": {
							"mode": "raw",
							"raw": "{\t\n\t\"name\": \"iaflasf\"\n}"
						},
						"url": {
							"raw": "{{apiUrl}}/v1/positions",
							"host": [
								"{{apiUrl}}"
							],
							"path": [
								"v1",
								"positions"
							]
						}
					},
					"response": []
				}
			]
		},
		{
			"name": "Match",
			"item": [
				{
					"name": "postMatch",
					"request": {
						"method": "POST",
						"header": [
							{
								"key": "Content-Type",
								"value": "application/json",
								"type": "text"
							}
						],
						"body": {
							"mode": "formdata",
							"formdata": [
								{
									"key": "areaPk",
									"value": "9cf17dd9-45a9-4d69-a213-c7f464c54c84",
									"type": "text"
								},
								{
									"key": "firstTeamPk",
									"value": "cbf667d2-d123-424c-9b77-bdbb6c89c488",
									"type": "text"
								},
								{
									"key": "secondTeamPk",
									"value": "cbf667d2-d123-424c-9b77-bdbb6c89c488",
									"type": "text"
								},
								{
									"key": "date",
									"value": "2021-01-27 00:00:00",
									"type": "text"
								},
								{
									"key": "currentPlayer",
									"value": "13",
									"type": "text"
								},
								{
									"key": "missingPlayer",
									"value": "2",
									"type": "text"
								}
							]
						},
						"url": {
							"raw": "{{apiUrl}}/v1/matchs",
							"host": [
								"{{apiUrl}}"
							],
							"path": [
								"v1",
								"matchs"
							]
						}
					},
					"response": []
				},
				{
					"name": "getMatchs",
					"protocolProfileBehavior": {
						"disableBodyPruning": true
					},
					"request": {
						"method": "GET",
						"header": [
							{
								"key": "Content-Type",
								"type": "text",
								"value": "application/json"
							}
						],
						"body": {
							"mode": "raw",
							"raw": ""
						},
						"url": {
							"raw": "{{apiUrl}}/v1/matchs",
							"host": [
								"{{apiUrl}}"
							],
							"path": [
								"v1",
								"matchs"
							]
						}
					},
					"response": []
				},
				{
					"name": "getMatch",
					"protocolProfileBehavior": {
						"disableBodyPruning": true
					},
					"request": {
						"method": "GET",
						"header": [
							{
								"key": "Content-Type",
								"type": "text",
								"value": "application/json"
							}
						],
						"body": {
							"mode": "raw",
							"raw": "{\t\n\t\"name\": \"iaflasf\"\n}"
						},
						"url": {
							"raw": "{{apiUrl}}/v1/matchs",
							"host": [
								"{{apiUrl}}"
							],
							"path": [
								"v1",
								"matchs"
							]
						}
					},
					"response": []
				},
				{
					"name": "patchMatch",
					"request": {
						"method": "PATCH",
						"header": [
							{
								"key": "Content-Type",
								"type": "text",
								"value": "application/json"
							}
						],
						"body": {
							"mode": "formdata",
							"formdata": [
								{
									"key": "imageUrl",
									"type": "file",
									"src": ""
								}
							]
						},
						"url": {
							"raw": "{{apiUrl}}/v1/matchs/ffd1bd98-9fae-4061-a4fa-00862d886ee5",
							"host": [
								"{{apiUrl}}"
							],
							"path": [
								"v1",
								"matchs",
								"ffd1bd98-9fae-4061-a4fa-00862d886ee5"
							]
						}
					},
					"response": []
				},
				{
					"name": "deleteMatch",
					"request": {
						"method": "DELETE",
						"header": [
							{
								"key": "Content-Type",
								"type": "text",
								"value": "application/json"
							}
						],
						"body": {
							"mode": "raw",
							"raw": "{\t\n\t\"name\": \"iaflasf\"\n}"
						},
						"url": {
							"raw": "{{apiUrl}}/v1/matchs/c2c0a022-7b32-4ffd-bb18-72cbbc5a0ef0",
							"host": [
								"{{apiUrl}}"
							],
							"path": [
								"v1",
								"matchs",
								"c2c0a022-7b32-4ffd-bb18-72cbbc5a0ef0"
							]
						}
					},
					"response": []
				}
			]
		},
		{
			"name": "Match2",
			"item": [
				{
					"name": "postMatch2",
					"request": {
						"method": "POST",
						"header": [
							{
								"key": "Content-Type",
								"type": "text",
								"value": "application/json"
							}
						],
						"body": {
							"mode": "raw",
							"raw": ""
						},
						"url": {
							"raw": "{{apiUrl}}/v1/matchs2",
							"host": [
								"{{apiUrl}}"
							],
							"path": [
								"v1",
								"matchs2"
							]
						}
					},
					"response": []
				},
				{
					"name": "getMatchs2",
					"protocolProfileBehavior": {
						"disableBodyPruning": true
					},
					"request": {
						"method": "GET",
						"header": [
							{
								"key": "Content-Type",
								"type": "text",
								"value": "application/json"
							}
						],
						"body": {
							"mode": "raw",
							"raw": ""
						},
						"url": {
							"raw": "{{apiUrl}}/v1/matchs2",
							"host": [
								"{{apiUrl}}"
							],
							"path": [
								"v1",
								"matchs2"
							]
						}
					},
					"response": []
				},
				{
					"name": "getMatch2",
					"protocolProfileBehavior": {
						"disableBodyPruning": true
					},
					"request": {
						"method": "GET",
						"header": [
							{
								"key": "Content-Type",
								"type": "text",
								"value": "application/json"
							}
						],
						"body": {
							"mode": "raw",
							"raw": "{\t\n\t\"name\": \"iaflasf\"\n}"
						},
						"url": {
							"raw": "{{apiUrl}}/v1/matchs2",
							"host": [
								"{{apiUrl}}"
							],
							"path": [
								"v1",
								"matchs2"
							]
						}
					},
					"response": []
				},
				{
					"name": "patchMatch2",
					"request": {
						"method": "PATCH",
						"header": [
							{
								"key": "Content-Type",
								"type": "text",
								"value": "application/json"
							}
						],
						"body": {
							"mode": "raw",
							"raw": ""
						},
						"url": {
							"raw": "{{apiUrl}}/v1/matchs2",
							"host": [
								"{{apiUrl}}"
							],
							"path": [
								"v1",
								"matchs2"
							]
						}
					},
					"response": []
				},
				{
					"name": "deleteMatch2",
					"request": {
						"method": "DELETE",
						"header": [
							{
								"key": "Content-Type",
								"type": "text",
								"value": "application/json"
							}
						],
						"body": {
							"mode": "raw",
							"raw": "{\t\n\t\"name\": \"iaflasf\"\n}"
						},
						"url": {
							"raw": "{{apiUrl}}/v1/matchs2",
							"host": [
								"{{apiUrl}}"
							],
							"path": [
								"v1",
								"matchs2"
							]
						}
					},
					"response": []
				}
			]
		},
		{
			"name": "Forum",
			"item": [
				{
					"name": "postForum",
					"request": {
						"method": "POST",
						"header": [
							{
								"key": "Content-Type",
								"type": "text",
								"value": "application/json"
							}
						],
						"body": {
							"mode": "formdata",
							"formdata": [
								{
									"key": "image",
									"type": "file",
									"src": ""
								},
								{
									"key": "video",
									"type": "file",
									"src": ""
								},
								{
									"key": "interview",
									"value": "blabla",
									"type": "text"
								}
							]
						},
						"url": {
							"raw": "{{apiUrl}}/v1/forums",
							"host": [
								"{{apiUrl}}"
							],
							"path": [
								"v1",
								"forums"
							]
						}
					},
					"response": []
				},
				{
					"name": "getForums",
					"protocolProfileBehavior": {
						"disableBodyPruning": true
					},
					"request": {
						"method": "GET",
						"header": [
							{
								"key": "Content-Type",
								"type": "text",
								"value": "application/json"
							}
						],
						"body": {
							"mode": "raw",
							"raw": ""
						},
						"url": {
							"raw": "{{apiUrl}}/v1/forums",
							"host": [
								"{{apiUrl}}"
							],
							"path": [
								"v1",
								"forums"
							]
						}
					},
					"response": []
				},
				{
					"name": "getForum",
					"protocolProfileBehavior": {
						"disableBodyPruning": true
					},
					"request": {
						"method": "GET",
						"header": [
							{
								"key": "Content-Type",
								"type": "text",
								"value": "application/json"
							}
						],
						"body": {
							"mode": "raw",
							"raw": "{\t\n\t\"name\": \"iaflasf\"\n}"
						},
						"url": {
							"raw": "{{apiUrl}}/v1/forums",
							"host": [
								"{{apiUrl}}"
							],
							"path": [
								"v1",
								"forums"
							]
						}
					},
					"response": []
				},
				{
					"name": "patchForum",
					"request": {
						"method": "PATCH",
						"header": [
							{
								"key": "Content-Type",
								"type": "text",
								"value": "application/json"
							}
						],
						"body": {
							"mode": "raw",
							"raw": "{\t\n\t\"name\": \"iaflasf\"\n}"
						},
						"url": {
							"raw": "{{apiUrl}}/v1/forums",
							"host": [
								"{{apiUrl}}"
							],
							"path": [
								"v1",
								"forums"
							]
						}
					},
					"response": []
				},
				{
					"name": "deleteForum",
					"request": {
						"method": "DELETE",
						"header": [
							{
								"key": "Content-Type",
								"type": "text",
								"value": "application/json"
							}
						],
						"body": {
							"mode": "raw",
							"raw": "{\t\n\t\"name\": \"iaflasf\"\n}"
						},
						"url": {
							"raw": "{{apiUrl}}/v1/forums",
							"host": [
								"{{apiUrl}}"
							],
							"path": [
								"v1",
								"forums"
							]
						}
					},
					"response": []
				}
			]
		}
	]
}